%YAML 1.1
%TAG !u! tag:unity3d.com,2011:
--- !u!114 &11400000
MonoBehaviour:
  m_ObjectHideFlags: 0
  m_PrefabParentObject: {fileID: 0}
  m_PrefabInternal: {fileID: 0}
  m_GameObject: {fileID: 0}
  m_Enabled: 1
  m_EditorHideFlags: 0
  m_Script: {fileID: 11500000, guid: 935899b62f48ae5498594680ed17d133, type: 3}
  m_Name: Inventory Engine Example Database
  m_EditorClassIdentifier: 
  version: 
  author: 
  description: 
  globalUserScript: 
  emphasisSettings:
  - color: {r: 1, g: 1, b: 1, a: 1}
    bold: 0
    italic: 0
    underline: 0
  - color: {r: 1, g: 0, b: 0, a: 1}
    bold: 0
    italic: 0
    underline: 0
  - color: {r: 0, g: 1, b: 0, a: 1}
    bold: 0
    italic: 0
    underline: 0
  - color: {r: 0, g: 0, b: 1, a: 1}
    bold: 0
    italic: 0
    underline: 0
  actors:
  - id: 1
    fields:
    - title: Name
      value: Player
      type: 0
      typeString: 
    - title: Pictures
      value: '[]'
      type: 3
      typeString: 
    - title: Description
      value: 
      type: 0
      typeString: 
    - title: IsPlayer
      value: True
      type: 2
      typeString: 
    portrait: {fileID: 0}
    alternatePortraits: []
  - id: 2
    fields:
    - title: Name
      value: NPC
      type: 0
      typeString: 
    - title: Pictures
      value: '[]'
      type: 3
      typeString: 
    - title: Description
      value: 
      type: 0
      typeString: 
    - title: IsPlayer
      value: False
      type: 2
      typeString: 
    portrait: {fileID: 0}
    alternatePortraits: []
  items:
  - id: 1
    fields:
    - title: Name
      value: Gather Apples
      type: 0
      typeString: CustomFieldType_Text
    - title: Pictures
      value: '[]'
      type: 3
      typeString: CustomFieldType_Files
    - title: Description
      value: An NPC has asked you to bring him 3 apples. In exchange, he'll give you
        blue armor.
      type: 0
      typeString: CustomFieldType_Text
    - title: Success Description
      value: 
      type: 0
      typeString: CustomFieldType_Text
    - title: Failure Description
      value: 
      type: 0
      typeString: CustomFieldType_Text
    - title: State
      value: unassigned
      type: 0
      typeString: CustomFieldType_QuestState
    - title: Is Item
      value: False
      type: 2
      typeString: CustomFieldType_Boolean
    - title: Trackable
      value: True
      type: 2
      typeString: CustomFieldType_Boolean
    - title: Abandonable
      value: False
      type: 2
      typeString: CustomFieldType_Boolean
    - title: Entry Count
      value: 1
      type: 1
      typeString: 
    - title: Entry 1 State
      value: active
      type: 0
      typeString: 
    - title: Entry 1
      value: '[lua(math.min(mmGetQuantity("RogueMainInventory", "Apple"), 6))] / 6
        apples'
      type: 0
      typeString: 
    - title: Track
      value: True
      type: 2
      typeString: 
  locations: []
  variables:
  - id: 1
    fields:
    - title: Name
      value: Alert
      type: 0
      typeString: 
    - title: Initial Value
      value: 
      type: 0
      typeString: 
    - title: Description
      value: 
      type: 0
      typeString: 
  conversations:
  - id: 1
    fields:
    - title: Title
      value: Apple Quest Conversation
      type: 0
      typeString: 
    - title: Pictures
      value: '[]'
      type: 3
      typeString: 
    - title: Description
      value: 
      type: 0
      typeString: 
    - title: Actor
      value: 1
      type: 5
      typeString: CustomFieldType_Actor
    - title: Conversant
      value: 2
      type: 5
      typeString: CustomFieldType_Actor
    overrideSettings:
      useOverrides: 0
      overrideSubtitleSettings: 0
      showNPCSubtitlesDuringLine: 1
      showNPCSubtitlesWithResponses: 1
      showPCSubtitlesDuringLine: 0
      skipPCSubtitleAfterResponseMenu: 0
      subtitleCharsPerSecond: 30
      minSubtitleSeconds: 2
      continueButton: 0
      overrideSequenceSettings: 0
      defaultSequence: 
      defaultPlayerSequence: 
      defaultResponseMenuSequence: 
      overrideInputSettings: 0
      alwaysForceResponseMenu: 1
      responseTimeout: 0
    nodeColor: 
    dialogueEntries:
    - id: 0
      fields:
      - title: Title
        value: START
        type: 0
        typeString: 
      - title: Pictures
        value: '[]'
        type: 3
        typeString: 
      - title: Description
        value: 
        type: 0
        typeString: 
      - title: Actor
        value: 1
        type: 5
        typeString: 
      - title: Conversant
        value: 2
        type: 5
        typeString: 
      - title: Menu Text
        value: 
        type: 0
        typeString: 
      - title: Dialogue Text
        value: 
        type: 0
        typeString: 
      - title: Parenthetical
        value: 
        type: 0
        typeString: 
      - title: Audio Files
        value: '[]'
        type: 3
        typeString: 
      - title: Video File
        value: 
        type: 0
        typeString: 
      - title: Sequence
        value: None()
        type: 0
        typeString: 
      - title: Show Invalid
        value: False
        type: 2
        typeString: 
      conversationID: 1
      isRoot: 0
      isGroup: 0
      nodeColor: 
      delaySimStatus: 0
      falseConditionAction: 
      conditionPriority: 2
      outgoingLinks:
      - originConversationID: 1
        originDialogueID: 0
        destinationConversationID: 1
        destinationDialogueID: 1
        isConnector: 0
        priority: 2
      - originConversationID: 1
        originDialogueID: 0
        destinationConversationID: 1
        destinationDialogueID: 2
        isConnector: 0
        priority: 2
      - originConversationID: 1
        originDialogueID: 0
        destinationConversationID: 1
        destinationDialogueID: 3
        isConnector: 0
        priority: 2
      conditionsString: 
      userScript: 
      onExecute:
        m_PersistentCalls:
          m_Calls: []
        m_TypeName: UnityEngine.Events.UnityEvent, UnityEngine, Version=0.0.0.0, Culture=neutral,
          PublicKeyToken=null
      canvasRect:
        serializedVersion: 2
        x: 476
        y: 18
        width: 160
        height: 30
    - id: 1
      fields:
      - title: Title
        value: New Dialogue Entry
        type: 0
        typeString: CustomFieldType_Text
      - title: Pictures
        value: '[]'
        type: 3
        typeString: CustomFieldType_Files
      - title: Description
        value: 
        type: 0
        typeString: CustomFieldType_Text
      - title: Actor
        value: 2
        type: 5
        typeString: CustomFieldType_Actor
      - title: Conversant
        value: 1
        type: 5
        typeString: CustomFieldType_Actor
      - title: Menu Text
        value: 
        type: 0
        typeString: CustomFieldType_Text
      - title: Dialogue Text
        value: If you bring me 6 apples, I'll give you blue armor.
        type: 0
        typeString: CustomFieldType_Text
      - title: Parenthetical
        value: 
        type: 0
        typeString: CustomFieldType_Text
      - title: Audio Files
        value: '[]'
        type: 3
        typeString: CustomFieldType_Files
      - title: Video File
        value: 
        type: 0
        typeString: CustomFieldType_Text
      - title: Sequence
        value: 
        type: 0
        typeString: CustomFieldType_Text
      - title: Show Invalid
        value: False
        type: 2
        typeString: CustomFieldType_Boolean
      conversationID: 1
      isRoot: 0
      isGroup: 0
      nodeColor: 
      delaySimStatus: 0
      falseConditionAction: Block
      conditionPriority: 2
      outgoingLinks:
      - originConversationID: 1
        originDialogueID: 1
        destinationConversationID: 1
        destinationDialogueID: 4
        isConnector: 0
        priority: 2
      - originConversationID: 1
        originDialogueID: 1
        destinationConversationID: 1
        destinationDialogueID: 5
        isConnector: 0
        priority: 2
      conditionsString: CurrentQuestState("Gather Apples") == "unassigned"
      userScript: 
      onExecute:
        m_PersistentCalls:
          m_Calls: []
        m_TypeName: UnityEngine.Events.UnityEvent, UnityEngine, Version=0.0.0.0, Culture=neutral,
          PublicKeyToken=null
      canvasRect:
        serializedVersion: 2
        x: 145
        y: 67
        width: 160
        height: 30
    - id: 2
      fields:
      - title: Title
        value: New Dialogue Entry
        type: 0
        typeString: CustomFieldType_Text
      - title: Pictures
        value: '[]'
        type: 3
        typeString: CustomFieldType_Files
      - title: Description
        value: 
        type: 0
        typeString: CustomFieldType_Text
      - title: Actor
        value: 2
        type: 5
        typeString: CustomFieldType_Actor
      - title: Conversant
        value: 1
        type: 5
        typeString: CustomFieldType_Actor
      - title: Menu Text
        value: 
        type: 0
        typeString: CustomFieldType_Text
      - title: Dialogue Text
        value: Do you have 6 apples?
        type: 0
        typeString: CustomFieldType_Text
      - title: Parenthetical
        value: 
        type: 0
        typeString: CustomFieldType_Text
      - title: Audio Files
        value: '[]'
        type: 3
        typeString: CustomFieldType_Files
      - title: Video File
        value: 
        type: 0
        typeString: CustomFieldType_Text
      - title: Sequence
        value: 
        type: 0
        typeString: CustomFieldType_Text
      - title: Show Invalid
        value: False
        type: 2
        typeString: CustomFieldType_Boolean
      conversationID: 1
      isRoot: 0
      isGroup: 0
      nodeColor: 
      delaySimStatus: 0
      falseConditionAction: Block
      conditionPriority: 2
      outgoingLinks:
      - originConversationID: 1
        originDialogueID: 2
        destinationConversationID: 1
        destinationDialogueID: 6
        isConnector: 0
        priority: 2
      - originConversationID: 1
        originDialogueID: 2
        destinationConversationID: 1
        destinationDialogueID: 7
        isConnector: 0
        priority: 2
      conditionsString: CurrentQuestState("Gather Apples") == "active"
      userScript: 
      onExecute:
        m_PersistentCalls:
          m_Calls: []
        m_TypeName: UnityEngine.Events.UnityEvent, UnityEngine, Version=0.0.0.0, Culture=neutral,
          PublicKeyToken=null
      canvasRect:
        serializedVersion: 2
        x: 476
        y: 68
        width: 160
        height: 30
    - id: 3
      fields:
      - title: Title
        value: New Dialogue Entry
        type: 0
        typeString: CustomFieldType_Text
      - title: Pictures
        value: '[]'
        type: 3
        typeString: CustomFieldType_Files
      - title: Description
        value: 
        type: 0
        typeString: CustomFieldType_Text
      - title: Actor
        value: 2
        type: 5
        typeString: CustomFieldType_Actor
      - title: Conversant
        value: 1
        type: 5
        typeString: CustomFieldType_Actor
      - title: Menu Text
        value: 
        type: 0
        typeString: CustomFieldType_Text
      - title: Dialogue Text
        value: Thanks for the apples. Enjoy the armor!
        type: 0
        typeString: CustomFieldType_Text
      - title: Parenthetical
        value: 
        type: 0
        typeString: CustomFieldType_Text
      - title: Audio Files
        value: '[]'
        type: 3
        typeString: CustomFieldType_Files
      - title: Video File
        value: 
        type: 0
        typeString: CustomFieldType_Text
      - title: Sequence
        value: 
        type: 0
        typeString: CustomFieldType_Text
      - title: Show Invalid
        value: False
        type: 2
        typeString: CustomFieldType_Boolean
      conversationID: 1
      isRoot: 0
      isGroup: 0
      nodeColor: 
      delaySimStatus: 0
      falseConditionAction: Block
      conditionPriority: 2
      outgoingLinks:
      - originConversationID: 1
        originDialogueID: 3
        destinationConversationID: 1
        destinationDialogueID: 8
        isConnector: 0
        priority: 2
      conditionsString: CurrentQuestState("Gather Apples") == "success"
      userScript: 
      onExecute:
        m_PersistentCalls:
          m_Calls: []
        m_TypeName: UnityEngine.Events.UnityEvent, UnityEngine, Version=0.0.0.0, Culture=neutral,
          PublicKeyToken=null
      canvasRect:
        serializedVersion: 2
        x: 716
        y: 68
        width: 160
        height: 30
    - id: 4
      fields:
      - title: Title
        value: New Dialogue Entry
        type: 0
        typeString: CustomFieldType_Text
      - title: Pictures
        value: '[]'
        type: 3
        typeString: CustomFieldType_Files
      - title: Description
        value: 
        type: 0
        typeString: CustomFieldType_Text
      - title: Actor
        value: 1
        type: 5
        typeString: CustomFieldType_Actor
      - title: Conversant
        value: 2
        type: 5
        typeString: CustomFieldType_Actor
      - title: Menu Text
        value: 
        type: 0
        typeString: CustomFieldType_Text
      - title: Dialogue Text
        value: Okay.
        type: 0
        typeString: CustomFieldType_Text
      - title: Parenthetical
        value: 
        type: 0
        typeString: CustomFieldType_Text
      - title: Audio Files
        value: '[]'
        type: 3
        typeString: CustomFieldType_Files
      - title: Video File
        value: 
        type: 0
        typeString: CustomFieldType_Text
      - title: Sequence
        value: 
        type: 0
        typeString: CustomFieldType_Text
      - title: Show Invalid
        value: False
        type: 2
        typeString: CustomFieldType_Boolean
      conversationID: 1
      isRoot: 0
      isGroup: 0
      nodeColor: 
      delaySimStatus: 0
      falseConditionAction: Block
      conditionPriority: 2
      outgoingLinks:
      - originConversationID: 1
        originDialogueID: 4
        destinationConversationID: 1
        destinationDialogueID: 6
        isConnector: 0
        priority: 2
      conditionsString: 
      userScript: 'SetQuestState("Gather Apples", "active");

        ShowAlert("New Quest: Gather Apples")'
      onExecute:
        m_PersistentCalls:
          m_Calls: []
        m_TypeName: UnityEngine.Events.UnityEvent, UnityEngine, Version=0.0.0.0, Culture=neutral,
          PublicKeyToken=null
      canvasRect:
        serializedVersion: 2
        x: 30
        y: 120
        width: 160
        height: 30
    - id: 5
      fields:
      - title: Title
        value: New Dialogue Entry
        type: 0
        typeString: CustomFieldType_Text
      - title: Pictures
        value: '[]'
        type: 3
        typeString: CustomFieldType_Files
      - title: Description
        value: 
        type: 0
        typeString: CustomFieldType_Text
      - title: Actor
        value: 1
        type: 5
        typeString: CustomFieldType_Actor
      - title: Conversant
        value: 2
        type: 5
        typeString: CustomFieldType_Actor
      - title: Menu Text
        value: 
        type: 0
        typeString: CustomFieldType_Text
      - title: Dialogue Text
        value: Maybe later. Bye.
        type: 0
        typeString: CustomFieldType_Text
      - title: Parenthetical
        value: 
        type: 0
        typeString: CustomFieldType_Text
      - title: Audio Files
        value: '[]'
        type: 3
        typeString: CustomFieldType_Files
      - title: Video File
        value: 
        type: 0
        typeString: CustomFieldType_Text
      - title: Sequence
        value: 
        type: 0
        typeString: CustomFieldType_Text
      - title: Show Invalid
        value: False
        type: 2
        typeString: CustomFieldType_Boolean
      conversationID: 1
      isRoot: 0
      isGroup: 0
      nodeColor: 
      delaySimStatus: 0
      falseConditionAction: Block
      conditionPriority: 2
      outgoingLinks: []
      conditionsString: 
      userScript: 
      onExecute:
        m_PersistentCalls:
          m_Calls: []
        m_TypeName: UnityEngine.Events.UnityEvent, UnityEngine, Version=0.0.0.0, Culture=neutral,
          PublicKeyToken=null
      canvasRect:
        serializedVersion: 2
        x: 210
        y: 120
        width: 160
        height: 30
    - id: 6
      fields:
      - title: Title
        value: New Dialogue Entry
        type: 0
        typeString: CustomFieldType_Text
      - title: Pictures
        value: '[]'
        type: 3
        typeString: CustomFieldType_Files
      - title: Description
        value: 
        type: 0
        typeString: CustomFieldType_Text
      - title: Actor
        value: 1
        type: 5
        typeString: CustomFieldType_Actor
      - title: Conversant
        value: 2
        type: 5
        typeString: CustomFieldType_Actor
      - title: Menu Text
        value: 
        type: 0
        typeString: CustomFieldType_Text
      - title: Dialogue Text
        value: Here you go.
        type: 0
        typeString: CustomFieldType_Text
      - title: Parenthetical
        value: 
        type: 0
        typeString: CustomFieldType_Text
      - title: Audio Files
        value: '[]'
        type: 3
        typeString: CustomFieldType_Files
      - title: Video File
        value: 
        type: 0
        typeString: CustomFieldType_Text
      - title: Sequence
        value: 
        type: 0
        typeString: CustomFieldType_Text
      - title: Show Invalid
        value: False
        type: 2
        typeString: CustomFieldType_Boolean
      conversationID: 1
      isRoot: 0
      isGroup: 0
      nodeColor: 
      delaySimStatus: 0
      falseConditionAction: Block
      conditionPriority: 2
      outgoingLinks:
      - originConversationID: 1
        originDialogueID: 6
        destinationConversationID: 1
        destinationDialogueID: 9
        isConnector: 0
        priority: 2
      conditionsString: mmGetQuantity("RogueMainInventory", "Apple") >= 6
      userScript: 
      onExecute:
        m_PersistentCalls:
          m_Calls: []
        m_TypeName: UnityEngine.Events.UnityEvent, UnityEngine, Version=0.0.0.0, Culture=neutral,
          PublicKeyToken=null
      canvasRect:
        serializedVersion: 2
        x: 422
        y: 204
        width: 160
        height: 30
    - id: 7
      fields:
      - title: Title
        value: New Dialogue Entry
        type: 0
        typeString: CustomFieldType_Text
      - title: Pictures
        value: '[]'
        type: 3
        typeString: CustomFieldType_Files
      - title: Description
        value: 
        type: 0
        typeString: CustomFieldType_Text
      - title: Actor
        value: 1
        type: 5
        typeString: CustomFieldType_Actor
      - title: Conversant
        value: 2
        type: 5
        typeString: CustomFieldType_Actor
      - title: Menu Text
        value: 
        type: 0
        typeString: CustomFieldType_Text
      - title: Dialogue Text
        value: Not yet. I'll be back.
        type: 0
        typeString: CustomFieldType_Text
      - title: Parenthetical
        value: 
        type: 0
        typeString: CustomFieldType_Text
      - title: Audio Files
        value: '[]'
        type: 3
        typeString: CustomFieldType_Files
      - title: Video File
        value: 
        type: 0
        typeString: CustomFieldType_Text
      - title: Sequence
        value: 
        type: 0
        typeString: CustomFieldType_Text
      - title: Show Invalid
        value: False
        type: 2
        typeString: CustomFieldType_Boolean
      conversationID: 1
      isRoot: 0
      isGroup: 0
      nodeColor: 
      delaySimStatus: 0
      falseConditionAction: Block
      conditionPriority: 2
      outgoingLinks: []
      conditionsString: 
      userScript: 
      onExecute:
        m_PersistentCalls:
          m_Calls: []
        m_TypeName: UnityEngine.Events.UnityEvent, UnityEngine, Version=0.0.0.0, Culture=neutral,
          PublicKeyToken=null
      canvasRect:
        serializedVersion: 2
        x: 533
        y: 161
        width: 160
        height: 30
    - id: 8
      fields:
      - title: Title
        value: New Dialogue Entry
        type: 0
        typeString: CustomFieldType_Text
      - title: Pictures
        value: '[]'
        type: 3
        typeString: CustomFieldType_Files
      - title: Description
        value: 
        type: 0
        typeString: CustomFieldType_Text
      - title: Actor
        value: 1
        type: 5
        typeString: CustomFieldType_Actor
      - title: Conversant
        value: 2
        type: 5
        typeString: CustomFieldType_Actor
      - title: Menu Text
        value: 
        type: 0
        typeString: CustomFieldType_Text
      - title: Dialogue Text
        value: Bye.
        type: 0
        typeString: CustomFieldType_Text
      - title: Parenthetical
        value: 
        type: 0
        typeString: CustomFieldType_Text
      - title: Audio Files
        value: '[]'
        type: 3
        typeString: CustomFieldType_Files
      - title: Video File
        value: 
        type: 0
        typeString: CustomFieldType_Text
      - title: Sequence
        value: 
        type: 0
        typeString: CustomFieldType_Text
      - title: Show Invalid
        value: False
        type: 2
        typeString: CustomFieldType_Boolean
      conversationID: 1
      isRoot: 0
      isGroup: 0
      nodeColor: 
      delaySimStatus: 0
      falseConditionAction: Block
      conditionPriority: 2
      outgoingLinks: []
      conditionsString: 
      userScript: 
      onExecute:
        m_PersistentCalls:
          m_Calls: []
        m_TypeName: UnityEngine.Events.UnityEvent, UnityEngine, Version=0.0.0.0, Culture=neutral,
          PublicKeyToken=null
      canvasRect:
        serializedVersion: 2
        x: 716
        y: 118
        width: 160
        height: 30
    - id: 9
      fields:
      - title: Title
        value: New Dialogue Entry
        type: 0
        typeString: CustomFieldType_Text
      - title: Pictures
        value: '[]'
        type: 3
        typeString: CustomFieldType_Files
      - title: Description
        value: 
        type: 0
        typeString: CustomFieldType_Text
      - title: Actor
        value: 2
        type: 5
        typeString: CustomFieldType_Actor
      - title: Conversant
        value: 1
        type: 5
        typeString: CustomFieldType_Actor
      - title: Menu Text
        value: 
        type: 0
        typeString: CustomFieldType_Text
      - title: Dialogue Text
        value: These are perfect! And here's your armor.
        type: 0
        typeString: CustomFieldType_Text
      - title: Parenthetical
        value: 
        type: 0
        typeString: CustomFieldType_Text
      - title: Audio Files
        value: '[]'
        type: 3
        typeString: CustomFieldType_Files
      - title: Video File
        value: 
        type: 0
        typeString: CustomFieldType_Text
      - title: Sequence
        value: 
        type: 0
        typeString: CustomFieldType_Text
      - title: Show Invalid
        value: False
        type: 2
        typeString: CustomFieldType_Boolean
      conversationID: 1
      isRoot: 0
      isGroup: 0
      nodeColor: 
      delaySimStatus: 0
      falseConditionAction: Block
      conditionPriority: 2
      outgoingLinks: []
      conditionsString: 
      userScript: 'mmRemoveItem("RogueMainInventory", "Apple", 6);

        mmAddItem("RogueMainInventory", "ArmorBlue", 1);

        ShowAlert("Gained Blue Armor");

        SetQuestState("Gather Apples", "success")'
      onExecute:
        m_PersistentCalls:
          m_Calls: []
        m_TypeName: UnityEngine.Events.UnityEvent, UnityEngine, Version=0.0.0.0, Culture=neutral,
          PublicKeyToken=null
      canvasRect:
        serializedVersion: 2
        x: 422
        y: 254
        width: 160
        height: 30
    canvasScrollPosition: {x: 0, y: 0}
    canvasZoom: 1
  syncInfo:
    syncActors: 0
    syncItems: 0
    syncLocations: 0
    syncVariables: 0
    syncActorsDatabase: {fileID: 0}
    syncItemsDatabase: {fileID: 0}
    syncLocationsDatabase: {fileID: 0}
    syncVariablesDatabase: {fileID: 0}
