%YAML 1.1
%TAG !u! tag:unity3d.com,2011:
--- !u!136 &2243200825154178256
CapsuleCollider:
  m_ObjectHideFlags: 0
  m_CorrespondingSourceObject: {fileID: 0}
  m_PrefabInstance: {fileID: 0}
  m_PrefabAsset: {fileID: 0}
  m_GameObject: {fileID: 3418213045117489655}
  m_Material: {fileID: 0}
  m_IsTrigger: 0
  m_Enabled: 1
  m_Radius: 0.5
  m_Height: 2
  m_Direction: 1
  m_Center: {x: 0, y: 1, z: 0}
--- !u!114 &983642264934612947
MonoBehaviour:
  m_ObjectHideFlags: 0
  m_CorrespondingSourceObject: {fileID: 0}
  m_PrefabInstance: {fileID: 0}
  m_PrefabAsset: {fileID: 0}
  m_GameObject: {fileID: 3418213045117489655}
  m_Enabled: 1
  m_EditorHideFlags: 0
  m_Script: {fileID: 11500000, guid: 04821f510f07ff84b874685ba4438a01, type: 3}
  m_Name: 
  m_EditorClassIdentifier: 
  chaseDistance: 5.5
  suspicionTime: 5
  patrolPath: {fileID: 0}
  waypointTolerance: 1
  waypointDwellTime: 3
  patrolSpeedFraction: 0.2
--- !u!114 &4869708733900857438
MonoBehaviour:
  m_ObjectHideFlags: 0
  m_CorrespondingSourceObject: {fileID: 0}
  m_PrefabInstance: {fileID: 0}
  m_PrefabAsset: {fileID: 0}
  m_GameObject: {fileID: 3418213045117489655}
  m_Enabled: 1
  m_EditorHideFlags: 0
  m_Script: {fileID: 11500000, guid: 42e28eb42fa1a524f8395c79131a9785, type: 3}
  m_Name: 
  m_EditorClassIdentifier: 
--- !u!114 &8594935043952627868
MonoBehaviour:
  m_ObjectHideFlags: 0
  m_CorrespondingSourceObject: {fileID: 0}
  m_PrefabInstance: {fileID: 0}
  m_PrefabAsset: {fileID: 0}
  m_GameObject: {fileID: 3418213045117489655}
  m_Enabled: 1
  m_EditorHideFlags: 0
  m_Script: {fileID: 11500000, guid: 5145a52ccbad050458190335535faa5b, type: 3}
  m_Name: 
  m_EditorClassIdentifier: 
  factionManager: {fileID: 0}
  factionDatabase: {fileID: 11400000, guid: b3cdc8cabc46f034497ca7ee839b9757, type: 2}
  factionID: 4
  pad:
    happiness: 0
    pleasure: 0
    arousal: 0
    dominance: 0
    excitabilityThreshold: 20
  impressionability: 0
  traitAlignmentImportance: 50
  arousalImportance: 50
  deedImpactThreshold: 5
  acclimatizationCurve:
    serializedVersion: 2
    m_Curve:
    - serializedVersion: 3
      time: 0
      value: 1
      inSlope: 0
      outSlope: 0
      tangentMode: 0
      weightedMode: 0
      inWeight: 0
      outWeight: 0
    - serializedVersion: 3
      time: 20
      value: 0
      inSlope: 0
      outSlope: 0
      tangentMode: 0
      weightedMode: 0
      inWeight: 0
      outWeight: 0
    m_PreInfinity: 2
    m_PostInfinity: 2
    m_RotationOrder: 4
  powerDifferenceCurve:
    serializedVersion: 2
    m_Curve:
    - serializedVersion: 3
      time: -10
      value: 0
      inSlope: 0
      outSlope: 0
      tangentMode: 0
      weightedMode: 0
      inWeight: 0
      outWeight: 0
    - serializedVersion: 3
      time: 1
      value: 0.1
      inSlope: 0
      outSlope: 0
      tangentMode: 0
      weightedMode: 0
      inWeight: 0
      outWeight: 0
    - serializedVersion: 3
      time: 10
      value: 1
      inSlope: 0
      outSlope: 0
      tangentMode: 0
      weightedMode: 0
      inWeight: 0
      outWeight: 0
    m_PreInfinity: 2
    m_PostInfinity: 2
    m_RotationOrder: 4
  maxMemories: 50
  shortTermMemoryDuration: 300
  longTermMemoryDuration: 3600
  memoryCleanupFrequency: 2
  sortMemories: 0
  shortTermMemory: []
  longTermMemory: []
  eyes: {fileID: 7865944738741587455}
  sightLayerMask:
    serializedVersion: 2
    m_Bits: 1
  debugEvalFunc: 0
--- !u!1001 &7320679462223498046
PrefabInstance:
  m_ObjectHideFlags: 0
  serializedVersion: 2
  m_Modification:
    m_TransformParent: {fileID: 0}
    m_Modifications:
    - target: {fileID: 5401972681186859721, guid: 750e3c6876a501e42b5827ec7a3d24d1,
        type: 3}
      propertyPath: m_Name
      value: Enemy
      objectReference: {fileID: 0}
    - target: {fileID: 8196697675836667564, guid: 750e3c6876a501e42b5827ec7a3d24d1,
        type: 3}
      propertyPath: m_LocalPosition.x
      value: -3.48662
      objectReference: {fileID: 0}
    - target: {fileID: 8196697675836667564, guid: 750e3c6876a501e42b5827ec7a3d24d1,
        type: 3}
      propertyPath: m_LocalPosition.y
      value: 0.00000047683716
      objectReference: {fileID: 0}
    - target: {fileID: 8196697675836667564, guid: 750e3c6876a501e42b5827ec7a3d24d1,
        type: 3}
      propertyPath: m_LocalPosition.z
      value: 2.007536
      objectReference: {fileID: 0}
    - target: {fileID: 8196697675836667564, guid: 750e3c6876a501e42b5827ec7a3d24d1,
        type: 3}
      propertyPath: m_LocalRotation.x
      value: -0
      objectReference: {fileID: 0}
    - target: {fileID: 8196697675836667564, guid: 750e3c6876a501e42b5827ec7a3d24d1,
        type: 3}
      propertyPath: m_LocalRotation.y
      value: 0.92878795
      objectReference: {fileID: 0}
    - target: {fileID: 8196697675836667564, guid: 750e3c6876a501e42b5827ec7a3d24d1,
        type: 3}
      propertyPath: m_LocalRotation.z
      value: -0
      objectReference: {fileID: 0}
    - target: {fileID: 8196697675836667564, guid: 750e3c6876a501e42b5827ec7a3d24d1,
        type: 3}
      propertyPath: m_LocalRotation.w
      value: 0.37061167
      objectReference: {fileID: 0}
    - target: {fileID: 8196697675836667564, guid: 750e3c6876a501e42b5827ec7a3d24d1,
        type: 3}
      propertyPath: m_RootOrder
      value: 0
      objectReference: {fileID: 0}
    - target: {fileID: 8196697675836667564, guid: 750e3c6876a501e42b5827ec7a3d24d1,
        type: 3}
      propertyPath: m_LocalEulerAnglesHint.x
      value: 0
      objectReference: {fileID: 0}
    - target: {fileID: 8196697675836667564, guid: 750e3c6876a501e42b5827ec7a3d24d1,
        type: 3}
      propertyPath: m_LocalEulerAnglesHint.y
      value: 136.49301
      objectReference: {fileID: 0}
    - target: {fileID: 8196697675836667564, guid: 750e3c6876a501e42b5827ec7a3d24d1,
        type: 3}
      propertyPath: m_LocalEulerAnglesHint.z
      value: 0
      objectReference: {fileID: 0}
    - target: {fileID: 3307795589981818629, guid: 750e3c6876a501e42b5827ec7a3d24d1,
        type: 3}
      propertyPath: healthPoints
      value: 40
      objectReference: {fileID: 0}
    - target: {fileID: 3125957438692005694, guid: 750e3c6876a501e42b5827ec7a3d24d1,
        type: 3}
      propertyPath: weaponDamage
      value: 10
      objectReference: {fileID: 0}
    - target: {fileID: 3125957438692005694, guid: 750e3c6876a501e42b5827ec7a3d24d1,
        type: 3}
      propertyPath: weapon
      value: 
      objectReference: {fileID: 11400000, guid: 2c7272ad808b5a8449f77a375a2c4119,
        type: 2}
    - target: {fileID: 3125957438692005694, guid: 750e3c6876a501e42b5827ec7a3d24d1,
        type: 3}
      propertyPath: handTransform
      value: 
      objectReference: {fileID: 7865944738741547367}
    - target: {fileID: 3125957438692005694, guid: 750e3c6876a501e42b5827ec7a3d24d1,
        type: 3}
      propertyPath: defaultWeapon
      value: 
      objectReference: {fileID: 11400000, guid: 2c7272ad808b5a8449f77a375a2c4119,
        type: 2}
    - target: {fileID: 3125957438692005694, guid: 750e3c6876a501e42b5827ec7a3d24d1,
        type: 3}
      propertyPath: rightHandTransform
      value: 
      objectReference: {fileID: 7865944738741547367}
    - target: {fileID: 3125957438692005694, guid: 750e3c6876a501e42b5827ec7a3d24d1,
        type: 3}
      propertyPath: leftHandTransform
      value: 
      objectReference: {fileID: 7865944738741604709}
    - target: {fileID: 1172905977, guid: 750e3c6876a501e42b5827ec7a3d24d1, type: 3}
      propertyPath: m_Speed
      value: 3
      objectReference: {fileID: 0}
    m_RemovedComponents: []
  m_SourcePrefab: {fileID: 100100000, guid: 750e3c6876a501e42b5827ec7a3d24d1, type: 3}
--- !u!1 &3418213045117489655 stripped
GameObject:
  m_CorrespondingSourceObject: {fileID: 5401972681186859721, guid: 750e3c6876a501e42b5827ec7a3d24d1,
    type: 3}
  m_PrefabInstance: {fileID: 7320679462223498046}
  m_PrefabAsset: {fileID: 0}
--- !u!4 &1466135209984916882 stripped
Transform:
  m_CorrespondingSourceObject: {fileID: 8196697675836667564, guid: 750e3c6876a501e42b5827ec7a3d24d1,
    type: 3}
  m_PrefabInstance: {fileID: 7320679462223498046}
  m_PrefabAsset: {fileID: 0}
--- !u!1001 &7865944738741651049
PrefabInstance:
  m_ObjectHideFlags: 0
  serializedVersion: 2
  m_Modification:
    m_TransformParent: {fileID: 1466135209984916882}
    m_Modifications:
    - target: {fileID: 133518, guid: 30cf93deff988e74e88a144bd2127c18, type: 3}
      propertyPath: m_Name
      value: Character_Knights_Soldier_01
      objectReference: {fileID: 0}
    - target: {fileID: 417656, guid: 30cf93deff988e74e88a144bd2127c18, type: 3}
      propertyPath: m_LocalPosition.x
      value: 0
      objectReference: {fileID: 0}
    - target: {fileID: 417656, guid: 30cf93deff988e74e88a144bd2127c18, type: 3}
      propertyPath: m_LocalPosition.y
      value: 0
      objectReference: {fileID: 0}
    - target: {fileID: 417656, guid: 30cf93deff988e74e88a144bd2127c18, type: 3}
      propertyPath: m_LocalPosition.z
      value: 0
      objectReference: {fileID: 0}
    - target: {fileID: 417656, guid: 30cf93deff988e74e88a144bd2127c18, type: 3}
      propertyPath: m_LocalRotation.x
      value: 0
      objectReference: {fileID: 0}
    - target: {fileID: 417656, guid: 30cf93deff988e74e88a144bd2127c18, type: 3}
      propertyPath: m_LocalRotation.y
      value: 0
      objectReference: {fileID: 0}
    - target: {fileID: 417656, guid: 30cf93deff988e74e88a144bd2127c18, type: 3}
      propertyPath: m_LocalRotation.z
      value: 0
      objectReference: {fileID: 0}
    - target: {fileID: 417656, guid: 30cf93deff988e74e88a144bd2127c18, type: 3}
      propertyPath: m_LocalRotation.w
      value: 1
      objectReference: {fileID: 0}
    - target: {fileID: 417656, guid: 30cf93deff988e74e88a144bd2127c18, type: 3}
      propertyPath: m_RootOrder
      value: 0
      objectReference: {fileID: 0}
    - target: {fileID: 417656, guid: 30cf93deff988e74e88a144bd2127c18, type: 3}
      propertyPath: m_LocalEulerAnglesHint.x
      value: 0
      objectReference: {fileID: 0}
    - target: {fileID: 417656, guid: 30cf93deff988e74e88a144bd2127c18, type: 3}
      propertyPath: m_LocalEulerAnglesHint.y
      value: 0
      objectReference: {fileID: 0}
    - target: {fileID: 417656, guid: 30cf93deff988e74e88a144bd2127c18, type: 3}
      propertyPath: m_LocalEulerAnglesHint.z
      value: 0
      objectReference: {fileID: 0}
    - target: {fileID: 13787996, guid: 30cf93deff988e74e88a144bd2127c18, type: 3}
      propertyPath: m_Bones.Array.data[0]
      value: 
      objectReference: {fileID: 7865944738741525851}
    - target: {fileID: 13787996, guid: 30cf93deff988e74e88a144bd2127c18, type: 3}
      propertyPath: m_Bones.Array.data[1]
      value: 
      objectReference: {fileID: 7865944738741498449}
    - target: {fileID: 13787996, guid: 30cf93deff988e74e88a144bd2127c18, type: 3}
      propertyPath: m_Bones.Array.data[2]
      value: 
      objectReference: {fileID: 7865944738741485943}
    - target: {fileID: 13787996, guid: 30cf93deff988e74e88a144bd2127c18, type: 3}
      propertyPath: m_Bones.Array.data[3]
      value: 
      objectReference: {fileID: 7865944738741496163}
    - target: {fileID: 13787996, guid: 30cf93deff988e74e88a144bd2127c18, type: 3}
      propertyPath: m_Bones.Array.data[4]
      value: 
      objectReference: {fileID: 7865944738741502725}
    - target: {fileID: 13787996, guid: 30cf93deff988e74e88a144bd2127c18, type: 3}
      propertyPath: m_Bones.Array.data[5]
      value: 
      objectReference: {fileID: 7865944738741561049}
    - target: {fileID: 13787996, guid: 30cf93deff988e74e88a144bd2127c18, type: 3}
      propertyPath: m_Bones.Array.data[6]
      value: 
      objectReference: {fileID: 7865944738741587455}
    - target: {fileID: 13787996, guid: 30cf93deff988e74e88a144bd2127c18, type: 3}
      propertyPath: m_Bones.Array.data[7]
      value: 
      objectReference: {fileID: 7865944738741602915}
    - target: {fileID: 13787996, guid: 30cf93deff988e74e88a144bd2127c18, type: 3}
      propertyPath: m_Bones.Array.data[8]
      value: 
      objectReference: {fileID: 7865944738741598951}
    - target: {fileID: 13787996, guid: 30cf93deff988e74e88a144bd2127c18, type: 3}
      propertyPath: m_Bones.Array.data[9]
      value: 
      objectReference: {fileID: 7865944738741502317}
    - target: {fileID: 13787996, guid: 30cf93deff988e74e88a144bd2127c18, type: 3}
      propertyPath: m_Bones.Array.data[10]
      value: 
      objectReference: {fileID: 7865944738741512019}
    - target: {fileID: 13787996, guid: 30cf93deff988e74e88a144bd2127c18, type: 3}
      propertyPath: m_Bones.Array.data[11]
      value: 
      objectReference: {fileID: 7865944738741504025}
    - target: {fileID: 13787996, guid: 30cf93deff988e74e88a144bd2127c18, type: 3}
      propertyPath: m_Bones.Array.data[12]
      value: 
      objectReference: {fileID: 7865944738741604709}
    - target: {fileID: 13787996, guid: 30cf93deff988e74e88a144bd2127c18, type: 3}
      propertyPath: m_Bones.Array.data[13]
      value: 
      objectReference: {fileID: 7865944738741534037}
    - target: {fileID: 13787996, guid: 30cf93deff988e74e88a144bd2127c18, type: 3}
      propertyPath: m_Bones.Array.data[14]
      value: 
      objectReference: {fileID: 7865944738741605269}
    - target: {fileID: 13787996, guid: 30cf93deff988e74e88a144bd2127c18, type: 3}
      propertyPath: m_Bones.Array.data[15]
      value: 
      objectReference: {fileID: 7865944738741510543}
    - target: {fileID: 13787996, guid: 30cf93deff988e74e88a144bd2127c18, type: 3}
      propertyPath: m_Bones.Array.data[16]
      value: 
      objectReference: {fileID: 7865944738741501267}
    - target: {fileID: 13787996, guid: 30cf93deff988e74e88a144bd2127c18, type: 3}
      propertyPath: m_Bones.Array.data[17]
      value: 
      objectReference: {fileID: 7865944738741587383}
    - target: {fileID: 13787996, guid: 30cf93deff988e74e88a144bd2127c18, type: 3}
      propertyPath: m_Bones.Array.data[18]
      value: 
      objectReference: {fileID: 7865944738741588939}
    - target: {fileID: 13787996, guid: 30cf93deff988e74e88a144bd2127c18, type: 3}
      propertyPath: m_Bones.Array.data[19]
      value: 
      objectReference: {fileID: 7865944738741600017}
    - target: {fileID: 13787996, guid: 30cf93deff988e74e88a144bd2127c18, type: 3}
      propertyPath: m_Bones.Array.data[20]
      value: 
      objectReference: {fileID: 7865944738741590685}
    - target: {fileID: 13787996, guid: 30cf93deff988e74e88a144bd2127c18, type: 3}
      propertyPath: m_Bones.Array.data[21]
      value: 
      objectReference: {fileID: 7865944738741499481}
    - target: {fileID: 13787996, guid: 30cf93deff988e74e88a144bd2127c18, type: 3}
      propertyPath: m_Bones.Array.data[22]
      value: 
      objectReference: {fileID: 7865944738741595185}
    - target: {fileID: 13787996, guid: 30cf93deff988e74e88a144bd2127c18, type: 3}
      propertyPath: m_Bones.Array.data[23]
      value: 
      objectReference: {fileID: 7865944738741610549}
    - target: {fileID: 13787996, guid: 30cf93deff988e74e88a144bd2127c18, type: 3}
      propertyPath: m_Bones.Array.data[24]
      value: 
      objectReference: {fileID: 7865944738741549119}
    - target: {fileID: 13787996, guid: 30cf93deff988e74e88a144bd2127c18, type: 3}
      propertyPath: m_Bones.Array.data[25]
      value: 
      objectReference: {fileID: 7865944738741608515}
    - target: {fileID: 13787996, guid: 30cf93deff988e74e88a144bd2127c18, type: 3}
      propertyPath: m_Bones.Array.data[26]
      value: 
      objectReference: {fileID: 7865944738741492887}
    - target: {fileID: 13787996, guid: 30cf93deff988e74e88a144bd2127c18, type: 3}
      propertyPath: m_Bones.Array.data[27]
      value: 
      objectReference: {fileID: 7865944738741547367}
    - target: {fileID: 13787996, guid: 30cf93deff988e74e88a144bd2127c18, type: 3}
      propertyPath: m_Bones.Array.data[28]
      value: 
      objectReference: {fileID: 7865944738741606435}
    - target: {fileID: 13787996, guid: 30cf93deff988e74e88a144bd2127c18, type: 3}
      propertyPath: m_Bones.Array.data[29]
      value: 
      objectReference: {fileID: 7865944738741610861}
    - target: {fileID: 13787996, guid: 30cf93deff988e74e88a144bd2127c18, type: 3}
      propertyPath: m_Bones.Array.data[30]
      value: 
      objectReference: {fileID: 7865944738741538153}
    - target: {fileID: 13787996, guid: 30cf93deff988e74e88a144bd2127c18, type: 3}
      propertyPath: m_Bones.Array.data[31]
      value: 
      objectReference: {fileID: 7865944738741604933}
    - target: {fileID: 13787996, guid: 30cf93deff988e74e88a144bd2127c18, type: 3}
      propertyPath: m_Bones.Array.data[32]
      value: 
      objectReference: {fileID: 7865944738741532873}
    - target: {fileID: 13787996, guid: 30cf93deff988e74e88a144bd2127c18, type: 3}
      propertyPath: m_Bones.Array.data[33]
      value: 
      objectReference: {fileID: 7865944738741494095}
    - target: {fileID: 13787996, guid: 30cf93deff988e74e88a144bd2127c18, type: 3}
      propertyPath: m_Bones.Array.data[34]
      value: 
      objectReference: {fileID: 7865944738741598003}
    - target: {fileID: 13787996, guid: 30cf93deff988e74e88a144bd2127c18, type: 3}
      propertyPath: m_Bones.Array.data[35]
      value: 
      objectReference: {fileID: 7865944738741509975}
    - target: {fileID: 13787996, guid: 30cf93deff988e74e88a144bd2127c18, type: 3}
      propertyPath: m_Bones.Array.data[36]
      value: 
      objectReference: {fileID: 7865944738741598899}
    - target: {fileID: 13787996, guid: 30cf93deff988e74e88a144bd2127c18, type: 3}
      propertyPath: m_Bones.Array.data[37]
      value: 
      objectReference: {fileID: 7865944738741531853}
    - target: {fileID: 13787996, guid: 30cf93deff988e74e88a144bd2127c18, type: 3}
      propertyPath: m_Bones.Array.data[38]
      value: 
      objectReference: {fileID: 7865944738741505333}
    - target: {fileID: 13787996, guid: 30cf93deff988e74e88a144bd2127c18, type: 3}
      propertyPath: m_Bones.Array.data[39]
      value: 
      objectReference: {fileID: 7865944738741496287}
    - target: {fileID: 13787996, guid: 30cf93deff988e74e88a144bd2127c18, type: 3}
      propertyPath: m_Bones.Array.data[40]
      value: 
      objectReference: {fileID: 7865944738741515727}
    - target: {fileID: 13787996, guid: 30cf93deff988e74e88a144bd2127c18, type: 3}
      propertyPath: m_Bones.Array.data[41]
      value: 
      objectReference: {fileID: 7865944738741595715}
    - target: {fileID: 13787996, guid: 30cf93deff988e74e88a144bd2127c18, type: 3}
      propertyPath: m_Bones.Array.data[42]
      value: 
      objectReference: {fileID: 7865944738741616199}
    - target: {fileID: 13787996, guid: 30cf93deff988e74e88a144bd2127c18, type: 3}
      propertyPath: m_Bones.Array.data[43]
      value: 
      objectReference: {fileID: 7865944738741507791}
    - target: {fileID: 13787996, guid: 30cf93deff988e74e88a144bd2127c18, type: 3}
      propertyPath: m_Bones.Array.data[44]
      value: 
      objectReference: {fileID: 7865944738741596987}
    - target: {fileID: 13787996, guid: 30cf93deff988e74e88a144bd2127c18, type: 3}
      propertyPath: m_Bones.Array.data[45]
      value: 
      objectReference: {fileID: 7865944738741542229}
    - target: {fileID: 13787996, guid: 30cf93deff988e74e88a144bd2127c18, type: 3}
      propertyPath: m_Bones.Array.data[46]
      value: 
      objectReference: {fileID: 7865944738741511889}
    - target: {fileID: 13787996, guid: 30cf93deff988e74e88a144bd2127c18, type: 3}
      propertyPath: m_Bones.Array.data[47]
      value: 
      objectReference: {fileID: 7865944738741500709}
    - target: {fileID: 13787996, guid: 30cf93deff988e74e88a144bd2127c18, type: 3}
      propertyPath: m_Bones.Array.data[48]
      value: 
      objectReference: {fileID: 7865944738741558117}
    - target: {fileID: 13787996, guid: 30cf93deff988e74e88a144bd2127c18, type: 3}
      propertyPath: m_RootBone
      value: 
      objectReference: {fileID: 7865944738741525851}
    m_RemovedComponents: []
  m_SourcePrefab: {fileID: 100100000, guid: 30cf93deff988e74e88a144bd2127c18, type: 3}
--- !u!4 &7865944738741485943 stripped
Transform:
  m_CorrespondingSourceObject: {fileID: 427806, guid: 30cf93deff988e74e88a144bd2127c18,
    type: 3}
  m_PrefabInstance: {fileID: 7865944738741651049}
  m_PrefabAsset: {fileID: 0}
--- !u!4 &7865944738741496163 stripped
Transform:
  m_CorrespondingSourceObject: {fileID: 438026, guid: 30cf93deff988e74e88a144bd2127c18,
    type: 3}
  m_PrefabInstance: {fileID: 7865944738741651049}
  m_PrefabAsset: {fileID: 0}
--- !u!4 &7865944738741502725 stripped
Transform:
  m_CorrespondingSourceObject: {fileID: 443756, guid: 30cf93deff988e74e88a144bd2127c18,
    type: 3}
  m_PrefabInstance: {fileID: 7865944738741651049}
  m_PrefabAsset: {fileID: 0}
--- !u!4 &7865944738741502317 stripped
Transform:
  m_CorrespondingSourceObject: {fileID: 444164, guid: 30cf93deff988e74e88a144bd2127c18,
    type: 3}
  m_PrefabInstance: {fileID: 7865944738741651049}
  m_PrefabAsset: {fileID: 0}
--- !u!4 &7865944738741512019 stripped
Transform:
  m_CorrespondingSourceObject: {fileID: 450874, guid: 30cf93deff988e74e88a144bd2127c18,
    type: 3}
  m_PrefabInstance: {fileID: 7865944738741651049}
  m_PrefabAsset: {fileID: 0}
--- !u!4 &7865944738741504025 stripped
Transform:
  m_CorrespondingSourceObject: {fileID: 446064, guid: 30cf93deff988e74e88a144bd2127c18,
    type: 3}
  m_PrefabInstance: {fileID: 7865944738741651049}
  m_PrefabAsset: {fileID: 0}
--- !u!4 &7865944738741604709 stripped
Transform:
  m_CorrespondingSourceObject: {fileID: 481036, guid: 30cf93deff988e74e88a144bd2127c18,
    type: 3}
  m_PrefabInstance: {fileID: 7865944738741651049}
  m_PrefabAsset: {fileID: 0}
--- !u!4 &7865944738741590685 stripped
Transform:
  m_CorrespondingSourceObject: {fileID: 466164, guid: 30cf93deff988e74e88a144bd2127c18,
    type: 3}
  m_PrefabInstance: {fileID: 7865944738741651049}
  m_PrefabAsset: {fileID: 0}
--- !u!4 &7865944738741499481 stripped
Transform:
  m_CorrespondingSourceObject: {fileID: 438320, guid: 30cf93deff988e74e88a144bd2127c18,
    type: 3}
  m_PrefabInstance: {fileID: 7865944738741651049}
  m_PrefabAsset: {fileID: 0}
--- !u!4 &7865944738741595185 stripped
Transform:
  m_CorrespondingSourceObject: {fileID: 469592, guid: 30cf93deff988e74e88a144bd2127c18,
    type: 3}
  m_PrefabInstance: {fileID: 7865944738741651049}
  m_PrefabAsset: {fileID: 0}
--- !u!4 &7865944738741610549 stripped
Transform:
  m_CorrespondingSourceObject: {fileID: 487004, guid: 30cf93deff988e74e88a144bd2127c18,
    type: 3}
  m_PrefabInstance: {fileID: 7865944738741651049}
  m_PrefabAsset: {fileID: 0}
--- !u!4 &7865944738741501267 stripped
Transform:
  m_CorrespondingSourceObject: {fileID: 441146, guid: 30cf93deff988e74e88a144bd2127c18,
    type: 3}
  m_PrefabInstance: {fileID: 7865944738741651049}
  m_PrefabAsset: {fileID: 0}
--- !u!4 &7865944738741587383 stripped
Transform:
  m_CorrespondingSourceObject: {fileID: 461790, guid: 30cf93deff988e74e88a144bd2127c18,
    type: 3}
  m_PrefabInstance: {fileID: 7865944738741651049}
  m_PrefabAsset: {fileID: 0}
--- !u!4 &7865944738741588939 stripped
Transform:
  m_CorrespondingSourceObject: {fileID: 464290, guid: 30cf93deff988e74e88a144bd2127c18,
    type: 3}
  m_PrefabInstance: {fileID: 7865944738741651049}
  m_PrefabAsset: {fileID: 0}
--- !u!4 &7865944738741600017 stripped
Transform:
  m_CorrespondingSourceObject: {fileID: 473464, guid: 30cf93deff988e74e88a144bd2127c18,
    type: 3}
  m_PrefabInstance: {fileID: 7865944738741651049}
  m_PrefabAsset: {fileID: 0}
--- !u!4 &7865944738741534037 stripped
Transform:
  m_CorrespondingSourceObject: {fileID: 408380, guid: 30cf93deff988e74e88a144bd2127c18,
    type: 3}
  m_PrefabInstance: {fileID: 7865944738741651049}
  m_PrefabAsset: {fileID: 0}
--- !u!4 &7865944738741605269 stripped
Transform:
  m_CorrespondingSourceObject: {fileID: 480764, guid: 30cf93deff988e74e88a144bd2127c18,
    type: 3}
  m_PrefabInstance: {fileID: 7865944738741651049}
  m_PrefabAsset: {fileID: 0}
--- !u!4 &7865944738741510543 stripped
Transform:
  m_CorrespondingSourceObject: {fileID: 452582, guid: 30cf93deff988e74e88a144bd2127c18,
    type: 3}
  m_PrefabInstance: {fileID: 7865944738741651049}
  m_PrefabAsset: {fileID: 0}
--- !u!4 &7865944738741549119 stripped
Transform:
  m_CorrespondingSourceObject: {fileID: 425558, guid: 30cf93deff988e74e88a144bd2127c18,
    type: 3}
  m_PrefabInstance: {fileID: 7865944738741651049}
  m_PrefabAsset: {fileID: 0}
--- !u!4 &7865944738741608515 stripped
Transform:
  m_CorrespondingSourceObject: {fileID: 484906, guid: 30cf93deff988e74e88a144bd2127c18,
    type: 3}
  m_PrefabInstance: {fileID: 7865944738741651049}
  m_PrefabAsset: {fileID: 0}
--- !u!4 &7865944738741492887 stripped
Transform:
  m_CorrespondingSourceObject: {fileID: 432894, guid: 30cf93deff988e74e88a144bd2127c18,
    type: 3}
  m_PrefabInstance: {fileID: 7865944738741651049}
  m_PrefabAsset: {fileID: 0}
--- !u!4 &7865944738741547367 stripped
Transform:
  m_CorrespondingSourceObject: {fileID: 423694, guid: 30cf93deff988e74e88a144bd2127c18,
    type: 3}
  m_PrefabInstance: {fileID: 7865944738741651049}
  m_PrefabAsset: {fileID: 0}
--- !u!4 &7865944738741509975 stripped
Transform:
  m_CorrespondingSourceObject: {fileID: 448830, guid: 30cf93deff988e74e88a144bd2127c18,
    type: 3}
  m_PrefabInstance: {fileID: 7865944738741651049}
  m_PrefabAsset: {fileID: 0}
--- !u!4 &7865944738741598899 stripped
Transform:
  m_CorrespondingSourceObject: {fileID: 474330, guid: 30cf93deff988e74e88a144bd2127c18,
    type: 3}
  m_PrefabInstance: {fileID: 7865944738741651049}
  m_PrefabAsset: {fileID: 0}
--- !u!4 &7865944738741531853 stripped
Transform:
  m_CorrespondingSourceObject: {fileID: 406180, guid: 30cf93deff988e74e88a144bd2127c18,
    type: 3}
  m_PrefabInstance: {fileID: 7865944738741651049}
  m_PrefabAsset: {fileID: 0}
--- !u!4 &7865944738741505333 stripped
Transform:
  m_CorrespondingSourceObject: {fileID: 445276, guid: 30cf93deff988e74e88a144bd2127c18,
    type: 3}
  m_PrefabInstance: {fileID: 7865944738741651049}
  m_PrefabAsset: {fileID: 0}
--- !u!4 &7865944738741604933 stripped
Transform:
  m_CorrespondingSourceObject: {fileID: 480300, guid: 30cf93deff988e74e88a144bd2127c18,
    type: 3}
  m_PrefabInstance: {fileID: 7865944738741651049}
  m_PrefabAsset: {fileID: 0}
--- !u!4 &7865944738741532873 stripped
Transform:
  m_CorrespondingSourceObject: {fileID: 409248, guid: 30cf93deff988e74e88a144bd2127c18,
    type: 3}
  m_PrefabInstance: {fileID: 7865944738741651049}
  m_PrefabAsset: {fileID: 0}
--- !u!4 &7865944738741494095 stripped
Transform:
  m_CorrespondingSourceObject: {fileID: 436006, guid: 30cf93deff988e74e88a144bd2127c18,
    type: 3}
  m_PrefabInstance: {fileID: 7865944738741651049}
  m_PrefabAsset: {fileID: 0}
--- !u!4 &7865944738741598003 stripped
Transform:
  m_CorrespondingSourceObject: {fileID: 471386, guid: 30cf93deff988e74e88a144bd2127c18,
    type: 3}
  m_PrefabInstance: {fileID: 7865944738741651049}
  m_PrefabAsset: {fileID: 0}
--- !u!4 &7865944738741606435 stripped
Transform:
  m_CorrespondingSourceObject: {fileID: 482890, guid: 30cf93deff988e74e88a144bd2127c18,
    type: 3}
  m_PrefabInstance: {fileID: 7865944738741651049}
  m_PrefabAsset: {fileID: 0}
--- !u!4 &7865944738741610861 stripped
Transform:
  m_CorrespondingSourceObject: {fileID: 487172, guid: 30cf93deff988e74e88a144bd2127c18,
    type: 3}
  m_PrefabInstance: {fileID: 7865944738741651049}
  m_PrefabAsset: {fileID: 0}
--- !u!4 &7865944738741538153 stripped
Transform:
  m_CorrespondingSourceObject: {fileID: 412416, guid: 30cf93deff988e74e88a144bd2127c18,
    type: 3}
  m_PrefabInstance: {fileID: 7865944738741651049}
  m_PrefabAsset: {fileID: 0}
--- !u!4 &7865944738741561049 stripped
Transform:
  m_CorrespondingSourceObject: {fileID: 499888, guid: 30cf93deff988e74e88a144bd2127c18,
    type: 3}
  m_PrefabInstance: {fileID: 7865944738741651049}
  m_PrefabAsset: {fileID: 0}
--- !u!4 &7865944738741525851 stripped
Transform:
  m_CorrespondingSourceObject: {fileID: 400178, guid: 30cf93deff988e74e88a144bd2127c18,
    type: 3}
  m_PrefabInstance: {fileID: 7865944738741651049}
  m_PrefabAsset: {fileID: 0}
--- !u!4 &7865944738741598951 stripped
Transform:
  m_CorrespondingSourceObject: {fileID: 474254, guid: 30cf93deff988e74e88a144bd2127c18,
    type: 3}
  m_PrefabInstance: {fileID: 7865944738741651049}
  m_PrefabAsset: {fileID: 0}
--- !u!4 &7865944738741602915 stripped
Transform:
  m_CorrespondingSourceObject: {fileID: 478218, guid: 30cf93deff988e74e88a144bd2127c18,
    type: 3}
  m_PrefabInstance: {fileID: 7865944738741651049}
  m_PrefabAsset: {fileID: 0}
--- !u!4 &7865944738741596987 stripped
Transform:
  m_CorrespondingSourceObject: {fileID: 472402, guid: 30cf93deff988e74e88a144bd2127c18,
    type: 3}
  m_PrefabInstance: {fileID: 7865944738741651049}
  m_PrefabAsset: {fileID: 0}
--- !u!4 &7865944738741542229 stripped
Transform:
  m_CorrespondingSourceObject: {fileID: 416572, guid: 30cf93deff988e74e88a144bd2127c18,
    type: 3}
  m_PrefabInstance: {fileID: 7865944738741651049}
  m_PrefabAsset: {fileID: 0}
--- !u!4 &7865944738741511889 stripped
Transform:
  m_CorrespondingSourceObject: {fileID: 450744, guid: 30cf93deff988e74e88a144bd2127c18,
    type: 3}
  m_PrefabInstance: {fileID: 7865944738741651049}
  m_PrefabAsset: {fileID: 0}
--- !u!4 &7865944738741500709 stripped
Transform:
  m_CorrespondingSourceObject: {fileID: 441676, guid: 30cf93deff988e74e88a144bd2127c18,
    type: 3}
  m_PrefabInstance: {fileID: 7865944738741651049}
  m_PrefabAsset: {fileID: 0}
--- !u!4 &7865944738741587455 stripped
Transform:
  m_CorrespondingSourceObject: {fileID: 461718, guid: 30cf93deff988e74e88a144bd2127c18,
    type: 3}
  m_PrefabInstance: {fileID: 7865944738741651049}
  m_PrefabAsset: {fileID: 0}
--- !u!4 &7865944738741496287 stripped
Transform:
  m_CorrespondingSourceObject: {fileID: 438198, guid: 30cf93deff988e74e88a144bd2127c18,
    type: 3}
  m_PrefabInstance: {fileID: 7865944738741651049}
  m_PrefabAsset: {fileID: 0}
--- !u!4 &7865944738741515727 stripped
Transform:
  m_CorrespondingSourceObject: {fileID: 455590, guid: 30cf93deff988e74e88a144bd2127c18,
    type: 3}
  m_PrefabInstance: {fileID: 7865944738741651049}
  m_PrefabAsset: {fileID: 0}
--- !u!4 &7865944738741595715 stripped
Transform:
  m_CorrespondingSourceObject: {fileID: 469034, guid: 30cf93deff988e74e88a144bd2127c18,
    type: 3}
  m_PrefabInstance: {fileID: 7865944738741651049}
  m_PrefabAsset: {fileID: 0}
--- !u!4 &7865944738741616199 stripped
Transform:
  m_CorrespondingSourceObject: {fileID: 489518, guid: 30cf93deff988e74e88a144bd2127c18,
    type: 3}
  m_PrefabInstance: {fileID: 7865944738741651049}
  m_PrefabAsset: {fileID: 0}
--- !u!4 &7865944738741507791 stripped
Transform:
  m_CorrespondingSourceObject: {fileID: 446630, guid: 30cf93deff988e74e88a144bd2127c18,
    type: 3}
  m_PrefabInstance: {fileID: 7865944738741651049}
  m_PrefabAsset: {fileID: 0}
--- !u!4 &7865944738741498449 stripped
Transform:
  m_CorrespondingSourceObject: {fileID: 439352, guid: 30cf93deff988e74e88a144bd2127c18,
    type: 3}
  m_PrefabInstance: {fileID: 7865944738741651049}
  m_PrefabAsset: {fileID: 0}
--- !u!4 &7865944738741558117 stripped
Transform:
  m_CorrespondingSourceObject: {fileID: 498956, guid: 30cf93deff988e74e88a144bd2127c18,
    type: 3}
  m_PrefabInstance: {fileID: 7865944738741651049}
  m_PrefabAsset: {fileID: 0}
